<svg xmlns="http://www.w3.org/2000/svg" xmlns:xlink="http://www.w3.org/1999/xlink" version="1.1" width="14" height="17" style="" xml:space="preserve"><rect id="backgroundrect" width="100%" height="100%" x="0" y="0" fill="none" stroke="none" style="" class=""/>

<g class="currentLayer" style=""><g id="MSP_Bag_Empty_2_" class="">
	<g id="MSP_Bag_Empty">
		<path style="fill:#FFFFFF;" d="M1.5,3 C0.6700000000000002,3 0,3.6700000000000017 0,4.5 v11 C0,16.33 0.6700000000000002,17 1.5,17 h11 c0.8300000000000001,0 1.5,-0.6700000000000002 1.5,-1.5 v-11 c0,-0.8300000000000001 -0.6700000000000002,-1.5 -1.5,-1.5 H1.5 zM13,15.5 c0,0.28 -0.22000000000000003,0.5 -0.5,0.5 h-11 C1.22,16 1,15.780000000000001 1,15.5 v-11 C1,4.219999999999999 1.22,4 1.5,4 h11 c0.28,0 0.5,0.22000000000000003 0.5,0.5 V15.5 z" id="svg_1"/>
	</g>
	<g id="svg_2">
		<path style="fill:#FFFFFF;" d="M10.75,4 h-7.5 v-0.5 C3.25,1.3399999999999999 5.2,0 7,0 s3.75,1.34 3.75,3.5 V4 zM4.3,3 H9.7 c-0.27,-1.25 -1.52,-2 -2.7,-2 S4.57,1.75 4.3,3 z" id="svg_3"/>
	</g>
</g></g></svg>